Good scientific practice: Design of High Throughput Experiments and their Analysis
…
dim(dfw)

[1] 45101   101

This dataframe has columns of data, one for each sample (annotated by the column names). Its rows correspond to the probes, annotated by the probe identifiers. This is an example for a data table in wide format.

dfw$probeid = rownames(dfw)
dfl = pivot_longer(dfw, 
            cols = colnames(x),
            names_to = "Embryonic Day") %T>% print

# A tibble: 4,555,201 × 3
   probeid    `Embryonic Day` value
   <chr>      <chr>           <dbl>
 1 1415670_at 1 E3.25          4.91
 2 1415670_at 2 E3.25          7.53
 3 1415670_at 3 E3.25          6.96
 4 1415670_at 4 E3.25          6.42
 5 1415670_at 5 E3.25          5.11
 6 1415670_at 6 E3.25          5.86
 7 1415670_at 7 E3.25          5.06
 8 1415670_at 8 E3.25          4.57
 9 1415670_at 9 E3.25          8.12
10 1415670_at 10 E3.25         5.46
# … with 4,555,191 more rows
…
